Country,Label,eba_code
0,Total / No breakdown ,N/A
1,Austria,AT
2,Belgium,BE
3,Bulgaria,N/A
4,Cyprus,N/A
5,Czech Republic,N/A
6,Denmark,DK
7,Estonia,N/A
8,Finland,FI
9,France,FR
10,Germany,DE
11,Greece,N/A
12,Hungary,HU
13,Iceland,N/A
14,Ireland,IE
15,Italy,IT
16,Latvia,N/A
17,Liechtenstein,N/A
18,Lithuania,N/A
19,Luxembourg,N/A
20,Malta,N/A
21,Netherlands,NL
22,Norway,NO
23,Poland,PL
24,Portugal,N/A
25,Romania,N/A
26,Slovakia,N/A
27,Slovenia,N/A
28,Spain,ES
29,Sweden,SE
30,United Kingdom,GB
31,Brazil,N/A
32,Chile,N/A
33,China,N/A
34,CROATIA,N/A
35,Hong Kong,N/A
36,India,N/A
37,Japan,N/A
38,Mexico,N/A
39,Peru,N/A
40,Russian Federation,N/A
41,Switzerland,N/A
42,Turkey,N/A
43,U.S.,N/A
44,International organisations,N/A
50,Afghanistan,N/A
51,Albania,N/A
52,Algeria,N/A
53,American Samoa,N/A
54,Andorra,N/A
55,Angola,N/A
56,Anguilla,N/A
57,Antigua and Barbuda,N/A
58,Argentina,N/A
59,Armenia,N/A
60,Aruba,N/A
61,Australia,N/A
62,Azerbaijan,N/A
63,Bahamas,N/A
64,Bahrain,N/A
65,Bangladesh,N/A
66,Barbados,N/A
67,Belarus,N/A
68,Belize,N/A
69,Benin,N/A
70,Bermuda,N/A
71,Bhutan,N/A
72,Bolivia - Plurinational state of,N/A
73,Bonaire - Sint Eustatius and Saba,N/A
74,Bosnia and Herzegowina,N/A
75,Botswana,N/A
76,British Indian Ocean Territory,N/A
77,Brunei Darussalam,N/A
78,Burkina Faso,N/A
79,Burundi,N/A
80,Cambodia,N/A
81,Cameroon,N/A
82,Canada,N/A
83,Cape Verde,N/A
84,Cayman Islands,N/A
85,Central African Republic,N/A
86,Chad,N/A
87,Channel Islands,N/A
88,Colombia,N/A
89,Comoros,N/A
90,CONGO - The Democratic Republic of the,N/A
91,CONGO,N/A
92,Cook Islands,N/A
93,Costa Rica,N/A
94,Cote d_Ivoire,N/A
95,Cuba,N/A
96,Curacao,N/A
97,Djibouti,N/A
98,Dominica,N/A
99,Dominican Republic,N/A
100,Ecuador,N/A
101,Egypt,N/A
102,El Salvador,N/A
103,Equatorial Guinea,N/A
104,Eritrea,N/A
105,Ethiopia,N/A
106,Faroe Islands,N/A
107,Falkland Islands (MALVINAS),N/A
108,Fiji,N/A
109,French Guiana,N/A
110,French Polynesia,N/A
111,Macedonia - The former Yugoslav Republic of,N/A
112,Gabon,N/A
113,Gambia,N/A
114,Georgia,N/A
115,Ghana,N/A
116,Gibraltar,N/A
117,Greenland,N/A
118,Grenada,N/A
119,Guadeloupe,N/A
120,Guam,N/A
121,Guatemala,N/A
122,Guinea,N/A
123,Guinea-Bissau,N/A
124,Guyana,N/A
125,Haiti,N/A
126,Holy See (Vatican City State),N/A
127,Honduras,N/A
128,Indonesia,N/A
129,Iran (Islamic Republic of),N/A
130,Iraq,N/A
131,Isle of Man,N/A
132,Israel,N/A
133,Jamaica,N/A
134,Jordan,N/A
135,Kazakhstan,N/A
136,Kenya,N/A
137,Kiribati,N/A
138,Korea Dem_People_Rep_of,N/A
139,Korea Republic_of,N/A
140,Kosovo,N/A
141,Kuwait,N/A
142,Kyrgyzstan,N/A
143,Lao P.D.R.,N/A
144,Lebanon,N/A
145,Lesotho,N/A
146,Liberia,N/A
147,Libya,N/A
148,Macao,N/A
149,Madagascar,N/A
150,Malawi,N/A
151,Malaysia,N/A
152,Maldives,N/A
153,Mali,N/A
154,Marshall Islands,N/A
155,Martinique,N/A
156,Mauritania,N/A
157,Mauritius,N/A
158,Mayotte,N/A
159,Micronesia - Federated States of,N/A
160,Moldova,N/A
161,Monaco,N/A
162,Mongolia,N/A
163,Montenegro,N/A
164,Montserrat,N/A
165,Morocco,N/A
166,Mozambique,N/A
167,Myanmar,N/A
168,Namibia,N/A
169,Nauru,N/A
170,Nepal,N/A
171,New Caledonia,N/A
172,New Zealand,N/A
173,Nicaragua,N/A
174,Niger,N/A
175,Nigeria,N/A
176,Niue,N/A
177,Northern Mariana Islands,N/A
178,Oman,N/A
179,Pakistan,N/A
180,Palau,N/A
181,Panama,N/A
182,Papua New Guinea,N/A
183,Paraguay,N/A
184,Philippines,N/A
185,Pitcairn,N/A
186,Puerto Rico,N/A
187,Qatar,N/A
188,Reunion,N/A
189,Rwanda,N/A
190,Saint Helena,N/A
191,Saint Kitts and Nevis,N/A
192,Saint Lucia,N/A
193,Saint Martin,N/A
194,Saint Vincent and the Grenadines,N/A
195,Saint-Pierre and Miquelon,N/A
196,Samoa,N/A
197,San Marino,N/A
198,Sao Tome and Principe,N/A
199,Saudi Arabia,N/A
200,Senegal,N/A
201,Serbia,N/A
202,Seychelles,N/A
203,Sierra Leone,N/A
204,Singapore,N/A
205,Sint Maarten,N/A
206,Solomon Islands,N/A
207,Somalia,N/A
208,South Africa,N/A
209,South Sudan,N/A
210,Sri Lanka,N/A
211,Sudan,N/A
212,Suriname,N/A
213,Svalbard and Jan Mayen Islands,N/A
214,Swaziland,N/A
215,Syria,N/A
216,Taiwan Province of China,N/A
217,Tajikistan,N/A
218,Tanzania,N/A
219,Thailand,N/A
220,Timor-Leste,N/A
221,Togo,N/A
222,Tokelau,N/A
223,Tonga,N/A
224,Trinidad and Tobago,N/A
225,Tunisia,N/A
226,Turkmenistan,N/A
227,Turks and Caicos Islands,N/A
228,Tuvalu,N/A
229,Uganda,N/A
230,Ukraine,N/A
231,United Arab Emirates,N/A
232,United States Minor Outlying Islands,N/A
233,Uruguay,N/A
234,Uzbekistan,N/A
235,Vanuatu,N/A
236,Venezuela,N/A
237,Vietnam,N/A
238,Wallis and Futuna Islands,N/A
239,West Bank and Gaza,N/A
240,Western Sahara,N/A
241,Yemen,N/A
242,Zambia,N/A
243,Zimbabwe,N/A
244,Others,N/A
245,Other CEE non EEA,N/A
246,Middle East,N/A
247,Latin America,N/A
248,Africa,N/A
249,Other advanced non EEA,N/A
